digraph G{
    //node[fontsize=11, fontname=Courier];
    "Combine" [shape=diamond];
    "Image Preprocessing" [shape=box];
    "Shape Detection" [shape=box];
    "Shape Extraction" [shape=box];
    "Skeleton Extraction" [shape=box];
    "Diagram Description" [shape=box];
    "Topological Analysis" [shape=box];
    "Text Recognition" [shape=box];
    "Start" [shape=ellipse];
    "End" [shape = ellipse];
    "Start" -> "Image Preprocessing" [dir=none]; 
    "Image Preprocessing" -> "Shape Detection" [dir=none];
    "Shape Detection" -> "Skeleton Extraction" [dir=none];
    "Shape Detection" -> "Shape Extraction" [dir=none];
    "Skeleton Extraction" -> "Topological Analysis" [dir=none];
    "Shape Extraction" -> "Text Recognition"[dir=none];
    "Topological Analysis" -> "Combine" [dir=none];
    "Text Recognition" -> "Combine" [dir=none];
    "Combine" -> "Diagram Description" [dir=none];
    "Diagram Description" -> "End" [dir=none];
}
